…
<details>

<summary>

<strong>Season summary</strong>
</summary>

## Season summary

A table containing summary details of each season of Survivor, including
the winner, runner ups and location.

``` r
season_summary
#> # A tibble: 76 × 26
#>    version version_season season_name season location country tribe_setup n_cast
#>    <chr>   <chr>          <chr>        <dbl> <chr>    <chr>   <chr>        <int>
#>  1 US      US50           Survivor: …     50 <NA>     <NA>     <NA>           24
#>  2 US      US49           Survivor: …     49 Mamanuc… Fiji    "Three tri…     18
#>  3 US      US48           Survivor: …     48 Mamanuc… Fiji    "Three tri…     18
#>  4 US      US47           Survivor: …     47 Mamanuc… Fiji    "Three tri…     18
#>  5 US      US46           Survivor: …     46 Mamanuc… Fiji    "Three tri…     18
#>  6 US      US45           Survivor: …     45 Mamanuc… Fiji    "Three tri…     18
#>  7 US      US44           Survivor: …     44 Mamanuc… Fiji    "Three tri…     18
#>  8 US      US43           Survivor: …     43 Mamanuc… Fiji    "Three tri…     18
#>  9 US      US42           Survivor: …     42 Mamanuc… Fiji    "Three tri…     18
#> 10 US      US41           Survivor: …     41 Mamanuc… Fiji    "Three tri…     18
#> 11 US      US40           Survivor: …     40 Mamanuc… Fiji    "Two tribe…     20
#> 12 US      US39           Survivor: …     39 Mamanuc… Fiji    "Two tribe…     20
#> 13 US      US38           Survivor: …     38 Mamanuc… Fiji    "Two tribe…     18
#> 14 US      US37           Survivor: …     37 Mamanuc… Fiji    "Two tribe…     20
#> 15 US      US36           Survivor: …     36 Mamanuc… Fiji    "Two tribe…     20
#> 16 US      US35           Survivor: …     35 Mamanuc… Fiji    "Three tri…     18
#> 17 US      US34           Survivor: …     34 Mamanuc… Fiji    "Two tribe…     20
#> 18 US      US33           Survivor: …     33 Mamanuc… Fiji    "Two tribe…     20
#> 19 US      US32           Survivor: …     32 Koh Ron… Cambod… "Three tri…     18
#> 20 US      US31           Survivor: …     31 Koh Ron… Cambod… "Two tribe…     20
#> 21 US      US30           Survivor: …     30 San Jua… Nicara… "Three tri…     18
#> 22 US      US29           Survivor: …     29 San Jua… Nicara… "Nine pair…     18
#> 23 US      US28           Survivor: …     28 Palaui … Philip… "Three tri…     18
#> 24 US      US27           Survivor: …     27 Palaui … Philip… "Two tribe…     20
#> 25 US      US26           Survivor: …     26 Caramoa… Philip… "Two tribe…     20
#> 26 US      US25           Survivor: …     25 Caramoa… Philip… "Three tri…     18
#> 27 US      US24           Survivor: …     24 San Jua… Nicara… "Two tribe…     18
#> 28 US      US23           Survivor: …     23 San Jua… Nicara… "Upolu, Sa…     18
#> 29 US      US22           Survivor: …     22 San Jua… Nicara… "Two tribe…     18
#> 30 US      US21           Survivor: …     21 San Jua… Nicara… "Two tribe…     20
#> # ℹ 46 more rows
#> # ℹ 18 more variables: n_tribes <int>, n_finalists <int>, n_jury <int>,
#> #   full_name <chr>, winner_id <chr>, winner <chr>, runner_ups <chr>,
#> #   final_vote <chr>, timeslot <chr>, premiered <date>, ended <date>,
#> #   filming_started <date>, filming_ended <date>, viewers_reunion <dbl>,
#> #   viewers_premiere <dbl>, viewers_finale <dbl>, viewers_mean <dbl>,
#> #   rank <dbl>
```
…
I have deprecated the old field `poc` in order to be more inclusive and
to make using the race/ethnicity fields simpler.

I have included a `collar` field is experimental and derived from a
language model. I suggest caution with it’s use as many occupations may
not fit neatly into a classification.

``` r
castaway_details
#> # A tibble: 1,200 × 22
#>    castaway_id full_name     full_name_detailed castaway last_name date_of_birth
#>    <chr>       <chr>         <chr>              <chr>    <chr>     <date>       
#>  1 US0001      Sonja Christ… Sonja Christopher  Sonja    Christop… 1937-01-28   
#>  2 US0002      B.B. Andersen B.B. Andersen      B.B.     Andersen  1936-01-18   
#>  3 US0003      Stacey Still… Stacey Stillman    Stacey   Stillman  1972-08-11   
#>  4 US0004      Ramona Gray   Ramona Gray        Ramona   Gray      1971-01-20   
#>  5 US0005      Dirk Been     Dirk Been          Dirk     Been      1976-06-15   
#>  6 US0006      Joel Klug     Joel Klug          Joel     Klug      1972-04-13   
#>  7 US0007      Gretchen Cor… Gretchen Cordy     Gretchen Cordy     1962-02-07   
#>  8 US0008      Greg Buis     Greg Buis          Greg     Buis      1975-12-31   
#>  9 US0009      Jenna Lewis   Jenna Lewis        Jenna L. Lewis     1977-07-16   
#> 10 US0010      Gervase Pete… Gervase Peterson   Gervase  Peterson  1969-11-02   
#> 11 US0011      Colleen Hask… Colleen Haskell    Colleen  Haskell   1976-12-06   
#> 12 US0012      Sean Kenniff  Sean Kenniff       Sean     Kenniff   1969-11-27   
#> 13 US0013      Susan Hawk    Susan Hawk         Sue      Hawk      1961-08-17   
#> 14 US0014      Rudy Boesch   Rudy Boesch        Rudy     Boesch    1928-01-20   
#> 15 US0015      Kelly Wigles… Kelly Wiglesworth  Kelly    Wigleswo… 1977-06-24   
#> 16 US0016      Richard Hatch Richard Hatch      Richard  Hatch     1961-04-08   
#> 17 US0017      Debb Eaton    Debb Eaton         Debb     Eaton     1955-06-11   
#> 18 US0018      Kel Gleason   Kel Gleason        Kel      Gleason   1968-01-05   
#> 19 US0019      Maralyn Hers… Maralyn Hershey    Maralyn  Hershey   1949-01-24   
#> 20 US0020      Mitchell Ols… Mitchell Olson     Mitchell Olson     1977-03-17   
#> 21 US0021      Kimmi Kappen… Kimmi Kappenberg   Kimmi    Kappenbe… 1972-11-11   
#> 22 US0022      Michael Skup… Michael Skupin     Michael  Skupin    1962-01-29   
#> 23 US0023      Jeff Varner   Jeff Varner        Jeff     Varner    1966-04-16   
#> 24 US0024      Alicia Calaw… Alicia Calaway     Alicia   Calaway   1968-05-01   
#> 25 US0025      Jerri Manthey Jerri Manthey      Jerri    Manthey   1970-09-05   
#> 26 US0026      Nick Brown    Nick Brown         Nick     Brown     1977-04-02   
#> 27 US0027      Amber Mariano Amber Mariano      Amber    Mariano   1978-08-11   
#> 28 US0028      Rodger Bingh… Rodger Bingham     Rodger   Bingham   1947-07-05   
#> 29 US0029      Elisabeth Fi… Elisabeth Filarski Elisabe… Filarski  1977-05-28   
#> 30 US0030      Keith Famie   Keith Famie        Keith    Famie     1960-02-11   
#> # ℹ 1,170 more rows
#> # ℹ 16 more variables: date_of_death <date>, gender <chr>, african <lgl>,
#> #   asian <lgl>, latin_american <lgl>, native_american <lgl>, bipoc <lgl>,
#> #   lgbt <lgl>, personality_type <chr>, occupation <chr>, collar <chr>,
#> #   three_words <chr>, hobbies <chr>, pet_peeves <chr>, race <chr>,
#> #   ethnicity <chr>
```

## Castaway scores

I have created a measure for challenge success, vote history or tribal
council success and advantage success. For more details please see
follow the links:

``` r
castaway_scores
#> # A tibble: 1,147 × 55
#>    version version_season season castaway castaway_id score_overall score_outwit
#>    <fct>   <chr>           <dbl> <chr>    <chr>               <dbl>        <dbl>
#>  1 US      US01                1 Sonja    US0001             0.0266  0.000000953
#>  2 US      US01                1 B.B.     US0002             0.0612  0.0120     
#>  3 US      US01                1 Stacey   US0003             0.124   0.137      
#>  4 US      US01                1 Ramona   US0004             0.233   0.355      
#>  5 US      US01                1 Dirk     US0005             0.269   0.391      
#>  6 US      US01                1 Joel     US0006             0.349   0.517      
#>  7 US      US01                1 Gretchen US0007             0.555   0.689      
#>  8 US      US01                1 Greg     US0008             0.556   0.424      
#>  9 US      US01                1 Jenna    US0009             0.522   0.561      
#> 10 US      US01                1 Gervase  US0010             0.591   0.455      
#> 11 US      US01                1 Colleen  US0011             0.613   0.516      
#> 12 US      US01                1 Sean     US0012             0.555   0.529      
#> 13 US      US01                1 Sue      US0013             0.575   0.653      
#> 14 US      US01                1 Rudy     US0014             0.560   0.503      
#> 15 US      US01                1 Kelly    US0015             0.852   0.748      
#> 16 US      US01                1 Richard  US0016             0.663   0.706      
#> 17 US      US02                2 Debb     US0017             0.0266  0.00000524 
#> 18 US      US02                2 Kel      US0018             0.0577  0.00330    
#> 19 US      US02                2 Maralyn  US0019             0.205   0.318      
#> 20 US      US02                2 Mitchell US0020             0.271   0.450      
#> 21 US      US02                2 Kimmi    US0021             0.297   0.442      
#> 22 US      US02                2 Michael  US0022             0.432   0.715      
#> 23 US      US02                2 Jeff     US0023             0.517   0.582      
#> 24 US      US02                2 Alicia   US0024             0.508   0.536      
#> 25 US      US02                2 Jerri    US0025             0.585   0.597      
#> 26 US      US02                2 Nick     US0026             0.529   0.382      
#> 27 US      US02                2 Amber    US0027             0.476   0.415      
#> 28 US      US02                2 Rodger   US0028             0.491   0.406      
#> 29 US      US02                2 Elisabe… US0029             0.547   0.537      
#> 30 US      US02                2 Keith    US0030             0.625   0.527      
#> # ℹ 1,117 more rows
#> # ℹ 48 more variables: score_outplay <dbl>, score_outlast <dbl>,
#> #   score_result <dbl>, score_jury <dbl>, score_vote <dbl>, score_adv <dbl>,
#> #   score_inf <dbl>, r_score_chal_all <dbl>, r_score_chal_immunity <dbl>,
#> #   r_score_chal_reward <dbl>, r_score_chal_tribal <dbl>,
#> #   r_score_chal_tribal_immunity <dbl>, r_score_chal_tribal_reward <dbl>,
#> #   r_score_chal_individual <dbl>, r_score_chal_individual_immunity <dbl>, …
```
…
The features of each challenge have been determined largely through
string searches of key words that describe the challenge. It may not be
100% accurate due to the different and inconsistent descriptions but in
most part they will provide a good basis for analysis.

If any descriptive features need altering please let me know in the
[issues](https://github.com/doehm/survivoR/issues).

``` r
challenge_description
#> # A tibble: 1,904 × 46
#>    version version_season season episode challenge_id challenge_number
#>    <fct>   <chr>           <dbl>   <dbl>        <dbl>            <dbl>
#>  1 US      US49               49       1            1                1
#>  2 US      US49               49       1            2                2
#>  3 US      US49               49       1            3                3
#>  4 US      US49               49       2            4                1
#>  5 US      US49               49       3            5                1
#>  6 US      US49               49       4            6                1
#>  7 US      US49               49       5            7                1
#>  8 US      US49               49       6            8                1
#>  9 US      US49               49       6            9                2
#> 10 US      US49               49       7           10                1
#> 11 US      US49               49       7           11                2
#> 12 US      US49               49       8           12                1
#> 13 US      US49               49       9           13                1
#> 14 US      US49               49       9           14                2
#> 15 US      US49               49      10           15                1
#> 16 US      US49               49      10           16                2
#> 17 US      US49               49      11           17                1
#> 18 US      US49               49      12           18                1
#> 19 US      US49               49      12           19                2
#> 20 US      US49               49      13           20                1
#> 21 US      US49               49      13           21                2
#> 22 US      US48               48       1            1                1
#> 23 US      US48               48       1            2                2
#> 24 US      US48               48       1            3                3
#> 25 US      US48               48       2            4                1
#> 26 US      US48               48       3            5                1
#> 27 US      US48               48       4            6                1
#> 28 US      US48               48       5            7                1
#> 29 US      US48               48       5            8                2
#> 30 US      US48               48       6            9                1
#> # ℹ 1,874 more rows
#> # ℹ 40 more variables: challenge_type <chr>, name <chr>, recurring_name <chr>,
#> #   all_names <chr>, description <chr>, reward <chr>,
#> #   additional_stipulation <chr>, balance <lgl>, balance_ball <lgl>,
#> #   balance_beam <lgl>, endurance <lgl>, fire <lgl>, food <lgl>,
#> #   knowledge <lgl>, memory <lgl>, mud <lgl>, obstacle_blindfolded <lgl>,
#> #   obstacle_cargo_net <lgl>, obstacle_chopping <lgl>, …
…
There is obviously overlap with the categories but this structure makes
it simple to summarise the table how you desire e.g.

``` r
challenge_summary |> 
  group_by(category, version_season, castaway) |> 
  summarise(
    n_challenges = n(), 
    n_won = sum(won)
    )
#> # A tibble: 11,994 × 5
#> # Groups:   category, version_season [779]
#>    category version_season castaway      n_challenges n_won
#>    <chr>    <chr>          <chr>                <int> <dbl>
#>  1 All      AU01           Andrew                  17     7
#>  2 All      AU01           Barry                    9     5
#>  3 All      AU01           Bianca                   3     2
#>  4 All      AU01           Brooke                  29    20
#>  5 All      AU01           Conner                  22     8
#>  6 All      AU01           Craig                   18     7
#>  7 All      AU01           Des                      2     0
#>  8 All      AU01           El                      33    16
#>  9 All      AU01           Evan                     5     1
#> 10 All      AU01           Flick                   32    18
#> 11 All      AU01           Jennah-Louise           27    18
#> 12 All      AU01           Kat                     15     5
#> 13 All      AU01           Kate                    23     7
#> 14 All      AU01           Kristie                 33     6
#> 15 All      AU01           Kylie                   25    19
#> 16 All      AU01           Lee                     33    17
#> 17 All      AU01           Matt                    31    18
#> 18 All      AU01           Nick                    24    17
#> 19 All      AU01           Peter                    6     5
#> 20 All      AU01           Phoebe                  21     5
#> 21 All      AU01           Rohan                   14     5
#> 22 All      AU01           Sam                     30    18
#> 23 All      AU01           Sue                     26     7
#> 24 All      AU01           Tegan                   11     7
#> 25 All      AU02           AK                      21    12
#> 26 All      AU02           Adam                     5     3
#> 27 All      AU02           Aimee                   10     5
#> 28 All      AU02           Anneliese               28    13
#> 29 All      AU02           Ben                     22    11
#> 30 All      AU02           Henry                   29    15
#> # ℹ 11,964 more rows
```
…
